dataabstract/src/da.pas=dataabstract/namespaced/Api.DA.pas
dataabstract/src/dasdk.pas=dataabstract/namespaced/Api.DA.Server.pas
dataabstract/src/dadataset.pas=dataabstract/namespaced/Data.DA.pas
dataabstract/src/rosdk.pas=dataabstract/namespaced/Api.RO.Server.pas
opentok/src/libopentok.pas=opentok/namespaced/Api.OpenTok.pas
xterm/src/xterm.pp=xterm/namespaced/Api.XTerm.pas
atom/src/libatom.pp=atom/namespaced/Api.Atom.pas
atom/src/atomapp.pp=atom/namespaced/Fcl.App.Atom.pas
pdfjs/src/pdfjs.pas=pdfjs/namespaced/Api.Pdf.JS.pas
htmlfragment/src/htmlfragment.pas=htmlfragment/namespaced/HTML.Fragment.pas
fcl-db/src/restconnection.pas=fcl-db/namespaced/Data.Rest.Connection.pas
fcl-db/src/jsondataset.pas=fcl-db/namespaced/Data.JsonDataset.pas
fcl-db/src/db.pas=fcl-db/namespaced/Data.Db.pas
fcl-db/src/dbconst.pas=fcl-db/namespaced/Data.Consts.pas
fcl-db/src/sqldbrestdataset.pp=fcl-db/namespaced/Data.Rest.SqlDb.pas
fcl-db/src/fieldmap.pp=fcl-db/namespaced/Data.FieldMap.pas
fcl-db/src/extjsdataset.pas=fcl-db/namespaced/Data.ExtJS.pas
fcl-db/src/localjsondataset.pas=fcl-db/namespaced/Data.LocalDataset.pas
fcl-db/src/data.htmlactions.pp=fcl-db/namespaced/Data.HTML.Actions.pas
fcl-base/src/fpexprpars.pas=fcl-base/namespaced/Fcl.Expressions.pas
fcl-base/src/nodejsapp.pas=fcl-base/namespaced/Fcl.App.NodeJs.pas
fcl-base/src/serviceworkerapp.pas=fcl-base/namespaced/Fcl.App.ServiceWorker.pas
fcl-base/src/browserapp.pas=fcl-base/namespaced/Fcl.App.Browser.pas
fcl-base/src/custapp.pas=fcl-base/namespaced/Fcl.CustApp.pas
fcl-base/src/pascodegen.pp=fcl-base/namespaced/Pascal.CodeGenerator.pas
fcl-base/src/debugcapture.pas=fcl-base/namespaced/Browser.DebugCapture.pas
bootstrap/src/bootstraptablewidget.pp=bootstrap/namespaced/Widget.BootstrapTable.pas
bootstrap/src/libbootstrap.pp=bootstrap/namespaced/Api.Bootstrap.pas
bootstrap/src/libbootstraptable.pp=bootstrap/namespaced/Api.BootstrapTable.pas
bootstrap/src/bootstrapwidgets.pp=bootstrap/namespaced/Widget.Bootstrap.pas
job/src/job_shared.pp=job/namespaced/JOB.Shared.pas
job/src/job_browser.pp=job/namespaced/JOB.Browser.pas
fullcalendar/src/libfullcalendar5.pp=fullcalendar/namespaced/Api.FullCalendar5.pas
fullcalendar/src/libfullcalendar4.pp=fullcalendar/namespaced/Api.FullCalendar4.pas
webwidget/src/dbwebwidget.pp=webwidget/namespaced/Widget.DB.pas
webwidget/src/webwidget.pas=webwidget/namespaced/Widget.Web.pas
webwidget/src/htmlwidgets.pp=webwidget/namespaced/Widget.HTML.pas
webwidget/src/dbhtmlwidgets.pp=webwidget/namespaced/Widget.HTML.DB.pas
webwidget/src/propertygridwidget.pp=webwidget/namespaced/Widget.PropertyGrid.pas
vscode/src/libvscode.pas=vscode/namespaced/Api.VSCode.pas
vscode/src/vscodeapp.pp=vscode/namespaced/Fcl.App.VSCode.pas
nodejs/src/node.net.pas=nodejs/namespaced/NodeApi.Net.pas
nodejs/src/node.onoff.pas=nodejs/namespaced/NodeApi.OnOff.pas
nodejs/src/node.fs.pas=nodejs/namespaced/NodeApi.FS.pas
nodejs/src/node.http.pas=nodejs/namespaced/NodeApi.Http.pas
nodejs/src/node.url.pas=nodejs/namespaced/NodeApi.Url.pas
nodejs/src/node.spidevice.pas=nodejs/namespaced/NodeApi.SPIDevice.pas
jspdf/src/jspdf.pas=jspdf/namespaced/Api.JSPdf.pas
bulma/src/bulmawidgets.pas=bulma/namespaced/Widget.Bulma.pas
fcl-rpc/src/fprpccodegen.pp=fcl-rpc/namespaced/FpRPC.CodeGen.pas
fcl-rpc/src/fprpcclient.pp=fcl-rpc/namespaced/FpRPC.Client.pas
electron/src/libelectron.pas=electron/namespaced/Api.Electron.pas
tinyeditor/src/libtinyeditor.pp=tinyeditor/namespaced/Api.TinyEditor.pas
pushjs/src/pushjs.pas=pushjs/namespaced/Api.PushJS.pas
wasi/src/wasienv.pas=wasi/namespaced/Wasi.Env.pas
wasi/src/wasiserviceapp.pas=wasi/namespaced/Fcl.App.Wasi.Service.pas
wasi/src/wasiworkerthreadhost.pas=wasi/namespaced/Fcl.App.Wasi.ThreadedHost.pas
wasi/src/wasithreadedapp.pas=wasi/namespaced/Fcl.App.Wasi.Threaded.pas
wasi/src/wasihostapp.pas=wasi/namespaced/Fcl.App.Wasi.Host.pas
wasi/src/rtl.webthreads.pas=wasi/namespaced/System.WebThreads.pas
fcl-json/src/fpjson.pp=fcl-json/namespaced/FpJson.Data.pp
fcl-json/src/fpjsonjs.pas=fcl-json/namespaced/FpJson.JS.pp
chartjs/src/chartjs.pas=chartjs/namespaced/Api.ChartJS.pas
fpcunit/src/fpcunit.pas=fpcunit/namespaced/FpcUnit.Test.pas
fpcunit/src/plaintestreport.pas=fpcunit/namespaced/FpcUnit.Reports.Plain.pas
fpcunit/src/testdecorator.pas=fpcunit/namespaced/FpcUnit.Decorator.pas
fpcunit/src/consoletestrunner.pas=fpcunit/namespaced/FpcUnit.Runners.Console.pas
fpcunit/src/testregistry.pas=fpcunit/namespaced/FpcUnit.Registry.pas
fpcunit/src/browsertestrunner.pas=fpcunit/namespaced/FpcUnit.Runners.Browser.pas
fpcunit/src/htmltestreport.pp=fpcunit/namespaced/FpcUnit.Reports.HTML.pas
fpcunit/src/fpcunitreport.pas=fpcunit/namespaced/FpcUnit.Report.pas
datatables/src/libdatatables.pas=datatables/namespaced/Api.DataTables.pas
rtl/src/sysutils.pas=rtl/namespaced/System.SysUtils.pas
rtl/src/simplelinkedlist.pas=rtl/namespaced/System.SimpleLinkedList.pas
rtl/src/Rtl.HTMLEventNames.pas=rtl/namespaced/HTML.EventNames.pas
rtl/src/webutils.pas=rtl/namespaced/System.WebUtils.pas
rtl/src/Rtl.HTMLTranslate.pas=rtl/namespaced/HTML.Translate.pas
rtl/src/classes.pas=rtl/namespaced/System.Classes.pas
rtl/src/generics.strings.pas=rtl/namespaced/System.Generics.Strings.pas
rtl/src/Rtl.BrowserLoadHelper.pas=rtl/namespaced/BrowserApi.LoadHelper.pas
rtl/src/contnrs.pas=rtl/namespaced/System.Contnrs.pas
rtl/src/webassembly.pas=rtl/namespaced/BrowserApi.WebAssembly.pas
rtl/src/websvg.pas=rtl/namespaced/BrowserApi.SVG.pas
rtl/src/hotreloadclient.pas=rtl/namespaced/System.HotReload.pas
rtl/src/Rtl.TemplateLoader.pas=rtl/namespaced/Browser.TemplateLoader.pas
rtl/src/generics.collections.pas=rtl/namespaced/System.Generics.Collections.pas
rtl/src/Rtl.ScriptLoader.pas=rtl/namespaced/Browser.ScriptLoader.pas
rtl/src/node.events.pas=rtl/namespaced/NodeApi.Events.pas
rtl/src/web.pas=rtl/namespaced/BrowserApi.Web.pas
rtl/src/weborworker.pas=rtl/namespaced/BrowserApi.WebOrWorker.pas
rtl/src/generics.defaults.pas=rtl/namespaced/System.Generics.Defaults.pas
rtl/src/rtlconsts.pas=rtl/namespaced/System.RTLConsts.pas
rtl/src/Rtl.UnitLoader.pas=rtl/namespaced/Browser.UnitLoader.pas
rtl/src/rtti.pas=rtl/namespaced/System.Rtti.pas
rtl/src/Rtl.HTMLUtils.pas=rtl/namespaced/HTML.Utils.pas
rtl/src/dateutils.pas=rtl/namespaced/System.DateUtils.pas
rtl/src/timer.pas=rtl/namespaced/System.Timer.pas
rtl/src/Rtl.HTMLActions.pas=rtl/namespaced/HTML.Actions.pas
rtl/src/math.pas=rtl/namespaced/System.Math.pas
rtl/src/class2pas.pas=rtl/namespaced/System.Class2Pas.pas
rtl/src/libjquery.pas=rtl/namespaced/Api.JQuery.pas
rtl/src/webrtc.pas=rtl/namespaced/BrowserApi.RTC.pas
rtl/src/webrouter.pp=rtl/namespaced/System.Router.pas
rtl/src/js.pas=rtl/namespaced/JSApi.JS.pas
rtl/src/p2jsres.pp=rtl/namespaced/System.Res.pas
rtl/src/webgl.pas=rtl/namespaced/BrowserApi.WebGL.pas
rtl/src/webworker.pas=rtl/namespaced/BrowserApi.Worker.pas
rtl/src/rstranslate.pp=rtl/namespaced/System.ResourceTranslate.pas
rtl/src/webbluetooth.pas=rtl/namespaced/BrowserApi.BlueTooth.pas
rtl/src/strutils.pas=rtl/namespaced/System.StrUtils.pas
rtl/src/webaudio.pas=rtl/namespaced/BrowserApi.Audio.pas
rtl/src/arrayutils.pas=rtl/namespaced/System.ArrayUtils.pas
rtl/src/nodejs.pas=rtl/namespaced/NodeApi.JS.pas
rtl/src/browserconsole.pas=rtl/namespaced/Browser.Console.pas
rtl/src/types.pas=rtl/namespaced/System.Types.pas
rtl/src/typinfo.pas=rtl/namespaced/System.TypInfo.pas
jitsimeet/src/libjitsimeet.pp=jitsimeet/namespaced/Api.JitsiMeet.pas
kurento/src/libkurento.pp=kurento/namespaced/Api.Kurento.pas
flatpickr/src/libflatpickr.pas=flatpickr/namespaced/Api.FlatPickr.pas
fpcunit/src/fpcunittestinsight.pp=fpcunit/namespaced/TestInsight.FpcUnit.pp
fpcunit/src/testinsightclient.pp=fpcunit/namespaced/TestInsight.Client.pp
fpcunit/src/testinsightprotocol.pp=fpcunit/namesaced/TestInsight.Protocol.pp
